{
    "skaik clulas": {
        "name": "Isle of Weeds",
        "type": "island",
        "pos": [
            31.853051982361137,
            52.87087137363127,
            64636.990039014185
        ],
        "planet": "60CA00FE6D5F50",
        "mapped": "2022-06-26T07:37:17.243Z"
    },
    "skaik clumel": {
        "name": "Flat Island",
        "type": "island",
        "pos": [
            31.776903397728027,
            52.60773165006629,
            64636.98720444663
        ],
        "planet": "60CA00FE6D5F50",
        "mapped": "2022-06-26T07:37:17.243Z"
    },
    "skaik crakaf": {
        "name": "Remnants of Koani",
        "type": "monument",
        "pos": [
            31.321505061864258,
            51.267619856806114,
            64642.72355442076
        ],
        "planet": "60CA00FE6D5F50",
        "mapped": "2022-06-26T07:37:17.243Z"
    },
    "skaik cluten": {
        "name": "Koani Overlook",
        "type": "hill",
        "pos": [
            31.52313922388136,
            51.522295099444456,
            64655.56928598855
        ],
        "planet": "60CA00FE6D5F50",
        "mapped": "2022-06-26T07:37:17.243Z"
    }
}
